Honey Drip Progress Journal - 2 Preprocessing
…
2.0.3 House Sales by Provinces

PATH <- "data/House Sales by Provinces.xls"

data_xl <- read_excel(PATH, range = cell_rows(14:129), col_names = names(read_excel(PATH, skip = 2))) 

# Fill NA Values
data_xl %>%
    fill(colnames(data_xl[1]), .direction = "downup")

# A tibble: 116 × 84
   Yıl      …¹ Ay\nM…² Topla…³ Adana Adıya…⁴ Afyon…⁵  Ağrı Aksaray Amasya Ankara
         <dbl> <chr>     <dbl> <dbl>   <dbl>   <dbl> <dbl>   <dbl>  <dbl>  <dbl>
 1        2013 Ocak -…   87444  1548     261     475   105     329    245  11215
 2        2013 Şubat …   88519  1667     421     506   198     269    290  11281
 3        2013 Mart -…   97956  1826     310     563    94     301    316  12291
 4        2013 Nisan …   95381  1875     281     458   164     315    302  11889
 5        2013 Mayıs …  103261  1941     326     549   141     400    364  12638
 6        2013 Hazira…   96424  1987     346     454   112     356    356  11692
 7        2013 Temmuz…  106636  1986     404     563   130     401    463  12428
 8        2013 Ağusto…   84480  1426     352     472   118     447    330   9636
 9        2013 Eylül …  102280  1624     422     536   126     519    343  12206
10        2013 Ekim -…   76344  1232     285     490   103     299    242   8231
# … with 106 more rows, 74 more variables: Antalya <dbl>, Ardahan <dbl>,
#   Artvin <dbl>, Aydın <dbl>, Balıkesir <dbl>, Bartın <dbl>, Batman <dbl>,
#   Bayburt <dbl>, Bilecik <dbl>, Bingöl <dbl>, Bitlis <dbl>, Bolu <dbl>,
#   Burdur <dbl>, Bursa <dbl>, Çanakkale <dbl>, Çankırı <dbl>, Çorum <dbl>,
#   Denizli <dbl>, Diyarbakır <dbl>, Düzce <dbl>, Edirne <dbl>, Elazığ <dbl>,
#   Erzincan <dbl>, Erzurum <dbl>, Eskişehir <dbl>, Gaziantep <dbl>,
#   Giresun <dbl>, Gümüşhane <dbl>, Hakkari <chr>, Hatay <dbl>, Iğdır <dbl>, …
…
